{
  "files": {
    "main.css": "/static/css/main.d20661b3.chunk.css",
    "main.js": "/static/js/main.5580cc74.chunk.js",
    "main.js.map": "/static/js/main.5580cc74.chunk.js.map",
    "runtime~main.js": "/static/js/runtime~main.a8a9905a.js",
    "runtime~main.js.map": "/static/js/runtime~main.a8a9905a.js.map",
    "static/js/2.230e7ab5.chunk.js": "/static/js/2.230e7ab5.chunk.js",
    "static/js/2.230e7ab5.chunk.js.map": "/static/js/2.230e7ab5.chunk.js.map",
    "index.html": "/index.html",
    "precache-manifest.19a4bd8e8b3cbca449b039e2637cd6ff.js": "/precache-manifest.19a4bd8e8b3cbca449b039e2637cd6ff.js",
    "service-worker.js": "/service-worker.js",
    "static/css/main.d20661b3.chunk.css.map": "/static/css/main.d20661b3.chunk.css.map"
  }
}